<?xml version="1.0" encoding="utf-8"?>
<!-- Generator: Adobe Illustrator 15.0.0, SVG Export Plug-In . SVG Version: 6.00 Build 0)  -->
<!DOCTYPE svg PUBLIC "-//W3C//DTD SVG 1.1//EN" "http://www.w3.org/Graphics/SVG/1.1/DTD/svg11.dtd">
<svg version="1.1" id="レイヤー_1" xmlns="http://www.w3.org/2000/svg" xmlns:xlink="http://www.w3.org/1999/xlink" x="0px"
	 y="0px" width="37.103px" height="40.109px" viewBox="0 0 37.103 40.109" enable-background="new 0 0 37.103 40.109"
	 xml:space="preserve">
<polyline fill="none" stroke="#FFFFFF" stroke-miterlimit="10" points="31.128,33.488 6.302,33.488 6.302,6.028 31.128,6.028 "/>
<g>
	<polyline fill="none" stroke="#FFFFFF" stroke-miterlimit="10" points="20.689,28.238 12.208,19.758 20.689,11.277 	"/>
	<line fill="none" stroke="#FFFFFF" stroke-miterlimit="10" x1="12.208" y1="19.758" x2="32.683" y2="19.758"/>
</g>
</svg>
