<?xml version="1.0" encoding="utf-8"?>
<!-- Generator: Adobe Illustrator 16.2.1, SVG Export Plug-In . SVG Version: 6.00 Build 0)  -->
<!DOCTYPE svg PUBLIC "-//W3C//DTD SVG 1.1//EN" "http://www.w3.org/Graphics/SVG/1.1/DTD/svg11.dtd">
<svg version="1.1" id="レイヤー_1" xmlns="http://www.w3.org/2000/svg" xmlns:xlink="http://www.w3.org/1999/xlink" x="0px"
	 y="0px" width="41px" height="134px" viewBox="0 0 41 134" enable-background="new 0 0 41 134" xml:space="preserve">
<g>
	<path d="M28.06,26.101l-0.12-1.65c4.14-0.78,5.399-4.53,5.399-6.96c0-5.25-4.53-8.339-10.379-8.339c-6.03,0-10.5,2.82-10.5,8.58
		c0,3.15,1.65,6.12,5.49,7.14l-0.12,1.62l-4.68-0.75c-0.21-0.51-1.17-2.82-1.35-3.3c-0.3-0.84-0.9-2.67-0.9-5.22
		c0-7.259,4.65-11.879,11.879-11.879c6.69,0,12.12,4.26,12.12,11.7c0,2.76-0.48,3.96-1.53,6.57c-0.33,0.84-0.45,1.41-0.54,1.92
		L28.06,26.101z"/>
	<path d="M28.09,37.201c0,5.58-4.41,8.16-8.58,8.16c-4.17,0-8.61-2.55-8.61-8.16c0-5.52,4.32-8.16,8.61-8.16
		C23.8,29.041,28.09,31.711,28.09,37.201z M12.46,37.291c0,4.59,5.85,4.59,6.78,4.59c1.17,0,7.29-0.12,7.29-4.77
		c0-4.59-5.67-4.59-7.17-4.59C18.79,32.521,12.46,32.611,12.46,37.291z"/>
	<path d="M11.38,55.051v-7.59h1.2c0,1.71,0.27,2.16,1.979,2.16h10.08c0.48,0,1.41,0,1.41-0.99c0-0.33-0.06-0.6-0.12-0.93l1.2-0.12
		l0.93,5.31h-2.52c0.87,0.66,2.52,2.64,2.52,5.4c0,4.74-4.08,4.74-5.13,4.74h-8.37c-1.68,0-1.979,0.42-1.979,2.16h-1.2v-5.43h11.37
		c1.26,0,3.09-0.3,3.09-2.73c0-1.8-1.26-3.75-3.15-4.14h-8.13c-1.71,0-1.979,0.48-1.979,2.16H11.38z"/>
	<path d="M14.74,81.811c-1.29-0.84-3.84-2.49-3.84-6.75c0-5.25,3.93-7.77,8.31-7.77c5.22,0,8.88,3.3,8.88,8.52
		c0,2.58-1.02,5.16-2.76,5.16c-0.84,0-1.53-0.63-1.53-1.59c0-1.05,0.63-1.26,1.41-1.53c1.26-0.45,1.32-1.71,1.32-2.25
		c0-2.91-2.52-4.83-6.48-4.83c-3.959,0-7.35,1.95-7.35,5.28c0,1.95,1.11,3.36,2.85,4.439L14.74,81.811z"/>
	<path d="M14.74,97.98c-1.05-0.69-3.84-2.46-3.84-6.689c0-4.62,3.42-7.5,8.28-7.5c5.399,0,8.91,3.54,8.91,7.65
		c0,2.79-1.74,6.57-8.04,6.69v-10.86c-5.43-0.09-7.259,2.7-7.259,5.01c0,2.67,2.1,3.93,2.85,4.38L14.74,97.98z M21.61,94.59
		c1.38-0.03,4.92-0.33,4.92-3.33c0-2.79-3.06-3.81-4.92-3.959V94.59z"/>
	<path d="M25.93,105.6c0.54,0.48,2.16,1.98,2.16,5.04c0,4.859-4.14,6.779-8.49,6.779c-6.15,0-8.7-3.54-8.7-7.29
		c0-1.32,0.36-3.18,1.47-4.53H6.94c-1.14,0-1.98,0.09-1.98,1.8v0.48h-1.2v-7.709h1.2c0,1.74,0.3,2.16,1.98,2.16H24.67
		c0.57,0,1.38-0.03,1.38-0.99c0-0.36-0.06-0.63-0.09-0.93l1.17-0.12l0.96,5.31H25.93z M14.92,105.6c-2.46,1.14-2.46,3.84-2.46,4.08
		c0,3.12,2.61,4.32,6.54,4.32c0.81,0,7.08,0,7.08-4.38c0-0.99-0.27-3.03-2.85-4.02H14.92z"/>
	<path d="M13.06,129.87c-0.51-0.42-2.16-1.8-2.16-4.47c0-3.3,2.58-3.51,3.96-3.51H26.05v-2.25h1.26c0.09,0.99,0.36,3.42,5.43,3.87
		v1.68h-5.13v4.26h-1.56v-4.26h-11.1c-0.45,0-1.89,0-1.89,1.47c0,1.14,0.78,1.83,1.17,2.16L13.06,129.87z"/>
</g>
</svg>
